…
## Summarising grouped data

-   We can group the rows in our data and calculate summaries for each group
-   group_by lets us pass variable names to set the structure
-   Row order is maintained

```{r eval=F}
Gestation_grouped_by_race <- group_by(Gestation, race) 
Gestation_grouped_by_race 
## # A tibble: 1,236 × 23 
## # Groups:   race [6] 
##       id pluralty   outcome  date       gestation sex      wt parity race    age 
##    <dbl> <chr>      <chr>    <date>         <dbl> <chr> <dbl>  <dbl> <chr> <dbl> 
##  1    15 single fe… live bi… 1964-11-11       284 male    120      1 asian    27 
##  2    20 single fe… live bi… 1965-02-07       282 male    113      2 white    33 
##  3    58 single fe… live bi… 1965-04-25       279 male    128      1 white    28 
##  4    61 single fe… live bi… 1965-02-12        NA male    123      2 white    36 
##  5    72 single fe… live bi… 1964-11-25       282 male    108      1 white    23 
##  6   100 single fe… live bi… 1965-07-31       286 male    136      4 white    25 
##  7   102 single fe… live bi… 1964-12-19       244 male    138      4 black    33 
##  8   129 single fe… live bi… 1965-04-11       245 male    132      2 black    23 
##  9   142 single fe… live bi… 1964-11-08       289 male    120      3 white    25 
## 10   148 single fe… live bi… 1965-04-17       299 male    143      3 white    30 
## # … with 1,226 more rows, and 13 more variables: ed <chr>, ht <dbl>, 
## #   wt.1 <dbl>, drace <chr>, dage <dbl>, ded <chr>, dht <dbl>, dwt <dbl>, 
## #   marital <chr>, inc <chr>, smoke <chr>, time <chr>, number <chr>
```
…
## Choosing and renaming columns

- We can also rename columns on the fly as we select them

```{r, eval=F}
select(Gestation, 
       Race                = race,  
       `Birthweight (oz)`  = wt, 
       `Cigs. smoked`      = number) 
## # A tibble: 1,236 × 3 
##    Race  `Birthweight (oz)` `Cigs. smoked` 
##    <chr>              <dbl> <chr>          
##  1 Asian                120 never          
##  2 White                113 never          
##  3 White                128 1-4 per day    
##  4 White                123 20-29 per day  
##  5 White                108 20-29 per day  
##  6 White                136 5-9 per day    
##  7 Black                138 never          
##  8 Black                132 never          
##  9 White                120 never          
## 10 White                143 15-19 per day  
## # … with 1,226 more rows
```
…
## Choosing rows 

- The dplyr equivalent of subset is filter 
- Takes a logical statement and does non-standard evaluation of variable names 
- filter(data, A & B) the same as filter(data, A, B)

```{r, eval=F}
Gestation2 <- select(Gestation, 
                     Race                = race,  
                     `Birthweight (oz)`  = wt,                                   
                     `Cigs. smoked`      = number) 
filter(Gestation2, Race == "white", `Cigs. smoked` == "never") 
## # A tibble: 352 × 3 
##    Race  `Birthweight (oz)` `Cigs. smoked` 
##    <chr>              <dbl> <chr>          
##  1 White                113 never          
##  2 White                120 never          
##  3 White                144 never          
##  4 White                125 never          
##  5 White                122 never          
##  6 White                113 never          
##  7 White                134 never          
##  8 White                128 never          
##  9 White                129 never          
## 10 White                110 never          
## # … with 342 more rows
```
…
